{
    "footer": {
        "sourceCode": "Codice sorgente",
        "contentsUnderLicence": "Contenuti con Licenza",
        "illustrationsBy": "Illustrazioni di",
        "madeBy": "Creato dal collettivo"
    },
    "service": {
        "other_instances": "Altra istanza e documentazione",
        "create": "Crea",
        "optional": "opzionale",
        "providedBy": "Fornito da",
        "changeInstance": "Cambia istanza",
        "instance": "Istanza",
        "bin": {
            "placeholder": "Crea un messaggio cifrato",
            "description": "Strumento di condivisione di frammenti di testo cifrati end-to-end",
            "title": "Condividi un testo cifrato"
        },
        "slides": {
            "placeholder": "Crea una presentazione",
            "description": "Modifica le tue presentazioni online",
            "title": "Presentazioni online"
        },
        "postit": {
            "placeholder": "Nome della bacheca",
            "description": "Raccogli e organizza le tue idee, rendi visibili gli spazi di partecipazione.",
            "title": "Bacheca per post-it"
        },
        "date": {
            "title": "Trova un orario",
            "placeholder": "Crea un sondaggio",
            "description": "Pianifica un incontro o prendi una decisione in modo facile e veloce."
        },
        "calc": {
            "placeholder": "Nome del foglio di calcolo",
            "description": "Foglio di calcolo collaborativo in tempo reale. Puoi scrivere in modo simultaneo.",
            "title": "Foglio di calcolo collaborativo"
        },
        "picture_sharing": {
            "placeholder": "Carica immagini",
            "description": "Condividi le immagini nelle gallerie. Veloce e senza bisogno di iscriversi.",
            "title": "Condivisione di immagini"
        },
        "url_shortener": {
            "placeholder": "Accorcia un link",
            "description": "Accorcia i tuoi link senza registrazione.",
            "title": "Servizio di abbreviazione di link"
        },
        "file_sharing": {
            "placeholder": "Carica file",
            "description": "Condividi file di grandi dimensioni in modo anonimo, senza bisogno di registrarti.",
            "title": "Condivisione di file"
        },
        "pad": {
            "placeholder": "Nome del pad",
            "description": "Un pad è un editor di testo collaborativo in tempo reale. Puoi scrivere in modo simultaneo.",
            "title": "Scrittura collaborativa"
        },
        "visio_conf": {
            "placeholder": "Nome della stanza",
            "description": "Videoconferenza per piccoli gruppi direttamente nel tuo browser, senza bisogno di registrazione.",
            "title": "Videoconferenza"
        }
    },
    "navbar": {
        "translate": "Traduci su Weblate",
        "language": "Lingua"
    },
    "home": {
        "more_info": "Maggiori informazioni",
        "description": "Servizi di software libero del collettivo CHATONS, per decentralizzare e scoprire un web a misura umana, che sia anche rispettoso della tua privacy.",
        "title": "Software libero servizi online"
    }
}
